5751 616813 470
645086 947278 525
691809 971771 525
974204 938075 507
818099 699902 504
367003 2928 443
644054 884882 525
656326 303552 509
988310 765390 525
244284 554069 470
712167 244695 509
830882 664671 504
11402 166622 383
175375 268841 443
691024 15471 509
637765 332071 509
823493 987206 525
111562 498727 449
1299 61615 340
960419 19375 525
900478 617535 525
388026 45746 443
700172 381632 509
224857 93917 386
732763 189095 509
99212 719059 509
420048 955903 525
125154 82870 354
584028 703561 509
43065 99434 351
222611 238018 443
173 9552 262
587881 795374 509
3406 13224 268
990763 692498 525
4209 41919 324
790148 879209 525
661375 204127 509
9393 78486 351
87875 633656 509
560 498 137
72448 663839 509
597864 445172 470
223815 577101 470
978764 208817 525
40355 765114 509
8213 3941 262
78355 62382 351
828981 734272 468
8582 986249 525
55515 641752 509
95688 34360 351
6681 89570 351
185693 608970 470
776848 783578 437
18744 799819 509
228635 753545 509
4266 12895 268
320901 682424 509
438555 661595 509
959697 899876 507
9525 14399 276
938160 441777 525
5600 91612 351
520128 840149 525
15265 894252 525
48094 249612 443
378226 371460 423
928061 518280 525
800824 686699 504
354518 549482 470
361321 68958 443
454678 156084 449
917857 824092 525
690366 908971 525
111302 610916 470
71558 644455 509
731332 230312 509
56033 630127 509
403755 614533 470
528490 727033 509
989853 297687 525
714138 31215 509
942432 863436 507
299 274 118
995705 360945 525
33938 57458 340
173556 543891 470
74667 480547 449
506229 64168 449
650882 738820 504
242633 589274 470
55723 632061 509
855763 19921 525
932039 800523 525
821977 173548 509
75651 366631 443
41199 552870 470
720979 629799 504
77379 765828 509
33723 465045 449
891705 127401 525
237550 290040 407
2788 981 209
243817 951579 525
877672 794829 525
8956 72 262
551321 200335 470
233 909333 525
188422 508434 449
593476 110684 470
93846 472969 449
636297 123036 509
220504 998231 525
995314 698064 525
577 97795 351
336386 58573 443
661643 444383 509
648317 708975 504
39281 589859 470
578140 706043 509
159878 923113 525
68262 545104 470
10 84 116
776124 697154 504
315310 521866 470
151027 306046 443
7 427068 449
216616 293290 443
33049 42700 324
73086 977366 525
50176 716612 509
908162 508380 525
213671 882009 525
594684 48136 470
648457 636791 416
345165 676165 509
3765 805316 509
905330 759863 525
78105 154043 375
735018 470039 509
24687 68344 340
224393 42213 386
59115 681230 509
72 4220 238
641655 166144 509
3282 92149 351
298248 716406 509
405877 30790 443
80 593 144
541322 471191 470
258466 201948 443
718105 590683 509
362071 74387 443
882 50 179
561155 258671 470
887848 373533 525
92 205447 383
441334 843393 525
9533 52 262
575005 337064 470
335195 415865 449
593753 697947 509
487 3928 238
234849 818334 509
721758 620000 509
787604 956512 525
60196 4998 340
331958 470141 449
3966 3919 189
895124 470565 525
787456 117424 509
11015 799866 509
696847 306877 509
891601 844344 445
66928 119826 354
741527 994625 525
345377 489564 449
646943 98871 509
502680 726346 509
103544 425427 449
634673 609109 509
40954 115118 354
312975 553215 470
82081 162493 383
135470 810039 509
663133 711883 504
474767 138696 449
5673 4420 236
789915 811268 468
415287 577243 470
445853 7 449
43840 715441 509
190336 93047 383
511565 114117 449
896611 432018 525
739675 473831 509
47772 473081 449
844032 478785 525
896198 481216 525
1 3362 217
211189 414188 449
148114 838353 525
201026 72935 383
131 153 117
344609 407879 441
978074 554572 525
939929 575204 525
319857 316587 353
43672 739827 509
629672 311673 509
640661 881850 525
931562 824630 525
592003 704732 509
658724 551865 509
218751 59331 386
2288 97897 351
542214 875896 525
682829 748958 504
898991 260393 525
407574 662316 509
507799 634947 509
43247 758505 509
379271 727819 509
5506 65 238
461344 108785 449
531339 640033 509
77 5739 238
830735 377804 509
891675 403873 525
974067 108858 525
123966 773470 509
866063 185599 525
482625 308695 449
339608 633147 509
407097 208577 443
711620 261143 509
780569 837589 468
775716 447617 509
20405 895785 525
628364 575245 509
829152 165587 509
659572 317574 509
981 919081 525
407798 584214 470
913802 285 525
307 9874 262
18954 699630 509
718556 728799 411
956628 20962 525
5 115 119
514294 126889 470
848097 303867 525
966681 848507 507
66 536 144
677152 804201 504
16 528674 470
119068 539398 470
805728 839308 525
184198 745502 509
857 6 171
762129 824589 468
596087 278223 470
960083 411025 525
22163 695363 509
911109 70823 525
207553 483523 449
975059 6 525
528579 232566 470
88664 897084 525
733459 120018 509
30886 786459 509
774171 87611 509
73202 55241 335
557324 592470 434
628767 853338 525
831786 50905 509
5 24097 282
239591 354737 441
632722 973730 525
85670 913336 525
108252 393532 443
512083 263896 470
324805 6 443
878908 411646 525
406575 687720 509
58 9817 262
466534 587713 470
7289 183069 383
83517 725206 509
302434 378508 441
640158 393256 509
28292 516948 470
