136402 612991 470
947912 799829 525
418243 448132 418
203673 539582 470
684678 564828 509
380244 932243 525
813289 220842 509
970988 525406 525
232824 817180 509
886587 64639 525
704139 86920 509
763459 617617 509
634865 324909 509
970690 432840 525
211127 843050 525
476758 475618 307
956497 267575 525
129665 267693 443
740796 979625 525
358319 635447 509
886074 286116 525
451206 758290 509
64869 859358 525
195723 591845 470
858507 928094 476
782992 831958 468
515247 918454 525
509909 122796 449
29385 912145 525
797375 951487 525
271512 660409 509
658908 472648 509
872636 916795 476
321913 702214 509
740785 382975 509
208619 443696 449
156881 691745 509
900404 562460 525
934025 458511 525
211035 800148 509
317921 79530 443
509642 691347 509
249864 719781 509
264031 311515 407
933906 695216 525
712988 638438 504
975569 850708 507
383799 293668 441
525528 888002 525
711859 65585 509
725273 36134 509
515751 380764 470
909798 22998 525
47577 254349 443
570294 926441 525
725314 343139 509
574410 484040 470
25266 863510 525
219580 575678 470
866448 397662 525
432750 843380 525
894845 164898 525
986256 408575 525
749752 676297 504
687918 393753 509
350118 205978 443
577425 34405 470
9227 663723 509
662807 268967 509
383677 942891 525
544400 707060 509
152180 428034 449
641596 699045 442
207925 647063 509
198632 588324 470
366512 92510 443
295090 2716 443
410748 844066 525
492398 67163 449
602057 24152 470
293642 337734 384
48220 888157 525
333803 344560 366
47342 402004 443
51478 538313 470
444632 649211 509
34983 541575 470
472739 86913 449
969321 66791 525
619572 22366 470
75295 102317 351
624911 544917 452
908525 820388 525
278280 362759 441
989357 842576 507
958410 401098 525
85777 727585 509
603701 253774 470
813523 30678 509
995219 129303 525
908059 912181 476
211304 662898 509
163748 784707 509
258853 154387 443
56461 971631 525
242203 427788 449
49198 377236 443
108605 17062 354
922271 3700 525
618723 267850 470
444796 45664 449
785910 177302 509
889340 489377 525
217471 445935 449
869805 435264 525
552384 78855 470
726817 470871 509
307415 173332 443
888447 918620 476
895564 692442 525
166119 399567 443
109699 715836 509
21808 875414 525
601861 385749 470
617500 416600 470
16136 935749 525
816951 58886 509
930982 424356 525
909852 608835 525
128429 162857 383
353520 505068 449
536990 786489 509
197614 43437 383
935258 837595 525
189250 949037 525
870235 823132 525
671862 216130 509
836169 882552 525
628889 610464 509
984981 120367 525
878719 582086 525
567703 181705 470
467348 491713 413
200058 160777 365
780654 766869 468
393165 3027 443
510379 130480 449
362815 622439 470
50003 491083 449
325219 640025 509
80717 798341 509
419205 687687 509
999048 449092 525
533667 832333 509
345934 277202 389
102061 730183 509
539261 502414 470
829359 628312 504
131055 97111 354
849157 572412 525
177708 108537 383
641388 394882 509
877356 238128 525
840531 583303 525
111507 287010 443
846168 807891 525
37563 807365 509
515541 333864 470
110702 161779 383
459324 153252 449
685891 823628 504
491767 600566 470
369412 806206 509
752828 336793 509
314307 676607 509
485000 331233 449
478308 663180 509
930372 823818 525
589451 236629 470
563874 949149 525
614985 920001 525
459894 437983 400
538951 560577 452
205431 573832 470
789534 939890 525
37705 500820 449
902323 268243 525
201077 930239 525
143358 733680 509
417980 432550 418
708790 475273 509
716704 991656 525
668001 269956 509
704915 583061 509
918128 103761 525
846097 506025 525
418111 6448 449
90903 397586 443
105203 726923 509
37325 323937 443
929606 571483 525
727919 700267 504
287929 897543 525
547295 155886 470
977360 211704 525
695316 367306 509
609649 339083 470
264854 466764 449
618017 282846 470
762404 919919 525
363217 509389 449
20591 905724 525
896473 472700 525
686094 829897 504
950871 187409 525
992875 832993 525
747925 5666 509
679140 474342 509
754630 443279 509
707363 408615 509
17485 954029 525
803756 649601 504
65044 502004 449
820571 366645 509
572991 931905 525
860068 62684 525
443604 787299 509
651235 552616 509
994505 308959 525
177470 392106 443
611959 347160 470
883960 330799 525
195269 591437 470
71638 787904 509
360620 738923 509
269539 919319 525
505914 634320 509
561522 887873 525
56960 401317 443
950434 91782 525
345503 116759 443
485888 294598 449
741411 739756 393
880785 137529 525
557543 593291 434
206667 4591 383
495886 488340 426
141327 303419 443
193923 513969 470
879806 403046 525
837938 807176 525
220306 968936 525
750498 910075 525
925312 785662 525
23364 167681 383
456179 56331 449
402421 254735 441
633639 949065 525
240366 50140 443
704483 862016 525
683795 208339 509
153815 955894 525
988248 635372 525
373215 312991 441
281321 575024 470
210101 411482 449
634682 888051 525
592577 47032 470
344678 751030 509
719962 324596 509
644608 459349 509
783484 668325 504
68318 705137 509
242735 424901 449
887886 199127 525
794772 902978 525
256307 361038 441
876716 206653 525
124239 646386 509
860607 474491 525
696153 95794 509
237068 364769 441
62556 471887 449
250520 368619 441
306660 787463 509
206456 824369 509
564399 611633 434
625258 342075 470
945534 326934 525
733568 737688 424
366247 769120 509
370683 454022 449
897167 509409 525
2587 457605 449
281697 133762 443
678497 688391 398
863415 169726 525
948045 590532 525
284071 310879 389
849178 790990 525
